{
  "unpublishedPage": {
    "name": "Page2",
    "slug": "page2",
    "layouts": [
      {
        "viewMode": false,
        "dsl": {
          "widgetName": "MainContainer",
          "backgroundColor": "none",
          "rightColumn": 1224,
          "snapColumns": 64,
          "detachFromLayout": true,
          "widgetId": "0",
          "topRow": 0,
          "bottomRow": 1060,
          "containerStyle": "none",
          "snapRows": 92,
          "parentRowSpace": 1,
          "type": "CANVAS_WIDGET",
          "canExtend": true,
          "version": 59,
          "minHeight": 930,
          "parentColumnSpace": 1,
          "dynamicBindingPathList": [],
          "leftColumn": 0,
          "children": [
            {
              "boxShadow": "none",
              "widgetName": "Audio1",
              "displayName": "Audio",
              "iconSVG": "/static/media/icon.cb54df7a.svg",
              "topRow": 1,
              "bottomRow": 5,
              "parentRowSpace": 10,
              "type": "AUDIO_WIDGET",
              "hideCard": false,
              "animateLoading": true,
              "parentColumnSpace": 16.1875,
              "leftColumn": 1,
              "dynamicBindingPathList": [
                {
                  "key": "borderRadius"
                },
                {
                  "key": "accentColor"
                }
              ],
              "key": "c1fy9jmpln",
              "isDeprecated": false,
              "rightColumn": 29,
              "widgetId": "8mtggddwvb",
              "accentColor": "{{appsmith.theme.colors.primaryColor}}",
              "isVisible": true,
              "version": 1,
              "url": "https://assets.appsmith.com/widgets/birds_chirping.mp3",
              "parentId": "0",
              "renderMode": "CANVAS",
              "isLoading": false,
              "borderRadius": "{{appsmith.theme.borderRadius.appBorderRadius}}",
              "autoPlay": false
            },
            {
              "boxShadow": "none",
              "widgetName": "AudioRecorder1",
              "displayName": "Audio Recorder",
              "iconSVG": "/static/media/icon.3cb03cd8.svg",
              "topRow": 7,
              "bottomRow": 15,
              "parentRowSpace": 10,
              "type": "AUDIO_RECORDER_WIDGET",
              "hideCard": false,
              "animateLoading": true,
              "parentColumnSpace": 16.1875,
              "leftColumn": 1,
              "dynamicBindingPathList": [
                {
                  "key": "accentColor"
                },
                {
                  "key": "borderRadius"
                }
              ],
              "isDisabled": false,
              "key": "6rg2ph0ziz",
              "isDeprecated": false,
              "rightColumn": 17,
              "widgetId": "5uwq2l672h",
              "accentColor": "{{appsmith.theme.colors.primaryColor}}",
              "isVisible": true,
              "version": 1,
              "parentId": "0",
              "renderMode": "CANVAS",
              "isLoading": false,
              "borderRadius": "{{appsmith.theme.borderRadius.appBorderRadius}}",
              "iconColor": "white"
            },
            {
              "boxShadow": "none",
              "widgetName": "Button1",
              "buttonColor": "{{appsmith.theme.colors.primaryColor}}",
              "displayName": "Button",
              "iconSVG": "/static/media/icon.cca02633.svg",
              "topRow": 17,
              "bottomRow": 21,
              "parentRowSpace": 10,
              "type": "BUTTON_WIDGET",
              "hideCard": false,
              "animateLoading": true,
              "parentColumnSpace": 16.1875,
              "leftColumn": 1,
              "dynamicBindingPathList": [
                {
                  "key": "buttonColor"
                },
                {
                  "key": "borderRadius"
                }
              ],
              "text": "Submit",
              "isDisabled": false,
              "key": "pv043w31ue",
              "isDeprecated": false,
              "rightColumn": 17,
              "isDefaultClickDisabled": true,
              "widgetId": "tti5tdmgd8",
              "isVisible": true,
              "recaptchaType": "V3",
              "version": 1,
              "parentId": "0",
              "renderMode": "CANVAS",
              "isLoading": false,
              "borderRadius": "{{appsmith.theme.borderRadius.appBorderRadius}}",
              "buttonVariant": "PRIMARY",
              "placement": "CENTER"
            },
            {
              "boxShadow": "none",
              "widgetName": "ButtonGroup1",
              "isCanvas": false,
              "displayName": "Button Group",
              "iconSVG": "/static/media/icon.d6773218.svg",
              "topRow": 23,
              "bottomRow": 27,
              "parentRowSpace": 10,
              "groupButtons": {
                "groupButton1": {
                  "label": "Favorite",
                  "iconName": "heart",
                  "id": "groupButton1",
                  "widgetId": "",
                  "buttonType": "SIMPLE",
                  "placement": "CENTER",
                  "isVisible": true,
                  "isDisabled": false,
                  "index": 0,
                  "menuItems": {},
                  "buttonColor": "{{appsmith.theme.colors.primaryColor}}"
                },
                "groupButton2": {
                  "label": "Add",
                  "iconName": "add",
                  "id": "groupButton2",
                  "buttonType": "SIMPLE",
                  "placement": "CENTER",
                  "widgetId": "",
                  "isVisible": true,
                  "isDisabled": false,
                  "index": 1,
                  "menuItems": {},
                  "buttonColor": "{{appsmith.theme.colors.primaryColor}}"
                },
                "groupButton3": {
                  "label": "More",
                  "iconName": "more",
                  "id": "groupButton3",
                  "buttonType": "MENU",
                  "placement": "CENTER",
                  "widgetId": "",
                  "isVisible": true,
                  "isDisabled": false,
                  "index": 2,
                  "menuItems": {
                    "menuItem1": {
                      "label": "First Option",
                      "backgroundColor": "#FFFFFF",
                      "id": "menuItem1",
                      "widgetId": "",
                      "onClick": "",
                      "isVisible": true,
                      "isDisabled": false,
                      "index": 0
                    },
                    "menuItem2": {
                      "label": "Second Option",
                      "backgroundColor": "#FFFFFF",
                      "id": "menuItem2",
                      "widgetId": "",
                      "onClick": "",
                      "isVisible": true,
                      "isDisabled": false,
                      "index": 1
                    },
                    "menuItem3": {
                      "label": "Delete",
                      "iconName": "trash",
                      "iconColor": "#FFFFFF",
                      "iconAlign": "right",
                      "textColor": "#FFFFFF",
                      "backgroundColor": "#DD4B34",
                      "id": "menuItem3",
                      "widgetId": "",
                      "onClick": "",
                      "isVisible": true,
                      "isDisabled": false,
                      "index": 2
                    }
                  },
                  "buttonColor": "{{appsmith.theme.colors.primaryColor}}"
                }
              },
              "type": "BUTTON_GROUP_WIDGET",
              "hideCard": false,
              "animateLoading": true,
              "parentColumnSpace": 16.1875,
              "leftColumn": 1,
              "dynamicBindingPathList": [
                {
                  "key": "borderRadius"
                },
                {
                  "key": "childStylesheet.button.buttonColor"
                },
                {
                  "key": "groupButtons.groupButton1.buttonColor"
                },
                {
                  "key": "groupButtons.groupButton2.buttonColor"
                },
                {
                  "key": "groupButtons.groupButton3.buttonColor"
                }
              ],
              "key": "iv1yqzriu6",
              "orientation": "horizontal",
              "isDeprecated": false,
              "rightColumn": 25,
              "widgetId": "yvo78a6ggr",
              "isVisible": true,
              "version": 1,
              "parentId": "0",
              "renderMode": "CANVAS",
              "isLoading": false,
              "childStylesheet": {
                "button": {
                  "buttonColor": "{{appsmith.theme.colors.primaryColor}}"
                }
              },
              "borderRadius": "{{appsmith.theme.borderRadius.appBorderRadius}}",
              "buttonVariant": "PRIMARY"
            },
            {
              "boxShadow": "none",
              "widgetName": "Camera1",
              "isCanvas": false,
              "displayName": "Camera",
              "iconSVG": "/static/media/icon.79c0d6de.svg",
              "topRow": 29,
              "bottomRow": 62,
              "parentRowSpace": 10,
              "type": "CAMERA_WIDGET",
              "hideCard": false,
              "mode": "CAMERA",
              "parentColumnSpace": 16.1875,
              "leftColumn": 1,
              "dynamicBindingPathList": [
                {
                  "key": "borderRadius"
                }
              ],
              "isDisabled": false,
              "key": "yr6esn5qa9",
              "isMirrored": true,
              "isDeprecated": false,
              "rightColumn": 26,
              "widgetId": "10gvr946k0",
              "isVisible": true,
              "version": 1,
              "parentId": "0",
              "renderMode": "CANVAS",
              "isLoading": false,
              "borderRadius": "{{appsmith.theme.borderRadius.appBorderRadius}}"
            },
            {
              "boxShadow": "{{appsmith.theme.boxShadow.appBoxShadow}}",
              "widgetName": "Container1",
              "borderColor": "transparent",
              "isCanvas": true,
              "displayName": "Container",
              "iconSVG": "/static/media/icon.1977dca3.svg",
              "topRow": 64,
              "bottomRow": 104,
              "parentRowSpace": 10,
              "type": "CONTAINER_WIDGET",
              "hideCard": false,
              "animateLoading": true,
              "parentColumnSpace": 16.1875,
              "leftColumn": 1,
              "dynamicBindingPathList": [
                {
                  "key": "borderRadius"
                },
                {
                  "key": "boxShadow"
                }
              ],
              "children": [
                {
                  "boxShadow": "none",
                  "widgetName": "Canvas1",
                  "displayName": "Canvas",
                  "topRow": 0,
                  "bottomRow": 400,
                  "parentRowSpace": 1,
                  "type": "CANVAS_WIDGET",
                  "canExtend": false,
                  "hideCard": true,
                  "minHeight": 400,
                  "parentColumnSpace": 1,
                  "leftColumn": 0,
                  "dynamicBindingPathList": [
                    {
                      "key": "borderRadius"
                    },
                    {
                      "key": "accentColor"
                    }
                  ],
                  "children": [],
                  "key": "p5ij3st88w",
                  "isDeprecated": false,
                  "rightColumn": 388.5,
                  "detachFromLayout": true,
                  "widgetId": "f3ay9tqf6q",
                  "accentColor": "{{appsmith.theme.colors.primaryColor}}",
                  "containerStyle": "none",
                  "isVisible": true,
                  "version": 1,
                  "parentId": "3pp9tohuon",
                  "renderMode": "CANVAS",
                  "isLoading": false,
                  "borderRadius": "{{appsmith.theme.borderRadius.appBorderRadius}}"
                }
              ],
              "borderWidth": "0",
              "key": "cjditr95cr",
              "backgroundColor": "#FFFFFF",
              "isDeprecated": false,
              "rightColumn": 25,
              "widgetId": "3pp9tohuon",
              "containerStyle": "card",
              "isVisible": true,
              "version": 1,
              "parentId": "0",
              "renderMode": "CANVAS",
              "isLoading": false,
              "borderRadius": "{{appsmith.theme.borderRadius.appBorderRadius}}"
            }
          ]
        },
        "layoutOnLoadActions": [],
        "validOnPageLoadActions": true,
        "id": "Page2",
        "deleted": false,
        "policies": [],
        "userPermissions": []
      }
    ],
    "userPermissions": [],
    "policies": []
  },
  "deleted": false,
  "gitSyncId": "62e23277c274cd2c5823e023_62e2328ec274cd2c5823e037"
}